{
  "public-test": {
    "status": ["stable"]
  },
  "IntelligentPixel": {
    "status": ["todo"]
  },
  "myTalk": {
    "status": ["stable"]
  },
  "ProjectNaN": {
    "status": ["todo"]
  },
  "scape-goat": {
    "status": ["review"]
  },
  "speech_recognition": {
    "status": ["stable"]
  },
  "SpeedofStars": {
    "status": ["stable"]
  },
  "TRB-KWIC": {
    "status": ["stable"]
  },
  "VoiceInventory-python": {
    "status": ["stable"]
  },
  "Xhour_002": {
    "status": ["review"]
  },
  "zacpez.github.io": {
    "status": ["stable"]
  },
  "rdfplayground": {
    "status": ["progress"]
  }
}
